1. Using R's C API - SC2
…
References

The purpose of this section is explaining how to interface R with C/C++ using the raw C API provided by R. In practice it is generally preferable to use the Rcpp package to interface R with C++, but it is useful to know how R’s C API works to have an idea of what is going on under the hood when you use Rcpp. Besides, many of the functions in base R are written in C using the R’s C API and do not use Rcpp. This section assumes that you have some basic knowledge of C.

Creating C functions that are callable from R

To provide some motivation, consider the following data:

library(gamair)
library(tibble)
data(chicago)
chicago <- as_tibble(chicago)
chicago

## # A tibble: 5,114 x 7
##    death pm10median pm25median o3median so2median   time  tmpd
##    <int>      <dbl>      <dbl>    <dbl>     <dbl>  <dbl> <dbl>
##  1   130     -7.43          NA    -19.6     1.93  -2556.  31.5
##  2   150     NA             NA    -19.0    -0.986 -2556.  33  
##  3   101     -0.827         NA    -20.2    -1.89  -2554.  33  
##  4   135      5.57          NA    -19.7     6.14  -2554.  29  
##  5   126     NA             NA    -19.2     2.28  -2552.  32  
##  6   130      6.57          NA    -17.6     9.86  -2552.  40  
##  7   129     -0.434         NA    -15.4    -5.82  -2550.  34.5
##  8   109     -5.43          NA    -12.2    -5.11  -2550.  29  
##  9   125     -0.571         NA    -20.1     0.182 -2548.  26.5
## 10   153     NA             NA    -18.6    -2.05  -2548.  32.5
## # … with 5,104 more rows
…
